Exploring Word Embeddings with Kern County Oil News Articles
…
For example, the custom embeddings associate “energy” with terms like “renewable,” “clean,” and “affordable,” reflecting the context of the energy industry in Kern county. But the bigger takeaway here is what is Jennifer doing?

Word Math

Word embeddings also enable us to perform arithmetic operations on word vectors, revealing interesting relationships and analogies. By adding or subtracting vectors, we can explore the semantic spaces and uncover meaningful combinations or contrasts.

Code

# Assemble word math equations
energy_disad <- word_vectors["water",] + word_vectors["resources",]
search_synonyms(word_vectors, energy_disad, "") %>% head(25)

# A tibble: 25 × 2
   token      similarity
   <chr>           <dbl>
 1 water          0.766 
 2 resources      0.616 
 3 natural        0.281 
 4 produced       0.206 
 5 corp           0.129 
 6 drinking       0.124 
 7 defense        0.101 
 8 supply         0.0994
 9 department     0.0961
10 supplies       0.0952
# ℹ 15 more rows

Code

energy_law <- word_vectors["court",] + word_vectors["permitting",]
search_synonyms(word_vectors, energy_law, "") %>% head(25)

# A tibble: 25 × 2
   token      similarity
   <chr>           <dbl>
 1 court          0.620 
 2 permitting     0.539 
 3 process        0.165 
 4 kern's         0.155 
 5 superior       0.147 
 6 appeals        0.126 
 7 judge          0.106 
 8 activity       0.104 
 9 ruling         0.103 
10 appeal         0.0934
# ℹ 15 more rows

Code

disad_law <- word_vectors["disadvantaged",] - word_vectors["health",]
search_synonyms(word_vectors, disad_law, "") %>% head(25)

# A tibble: 25 × 2
   token      similarity
   <chr>           <dbl>
 1 review         0.0762
 2 hearing        0.0575
 3 set            0.0552
 4 mitigation     0.0518
 5 law            0.0507
 6 comment        0.0420
 7 potential      0.0408
 8 attorney       0.0393
 9 county         0.0387
10 2022           0.0372
# ℹ 15 more rows
…
tidy_glove %>% nearest_neighbors("energy")

# A tibble: 400,000 × 2
   item1       value
   <chr>       <dbl>
 1 energy      1    
 2 resources   0.729
 3 gas         0.724
 4 renewable   0.710
 5 natural     0.703
 6 petroleum   0.699
 7 electricity 0.693
 8 oil         0.686
 9 power       0.664
10 development 0.664
# ℹ 399,990 more rows

Code

tidy_glove %>% nearest_neighbors("disadvantaged")

# A tibble: 400,000 × 2
   item1           value
   <chr>           <dbl>
 1 disadvantaged   1    
 2 underprivileged 0.879
 3 needy           0.728
 4 low-income      0.704
 5 at-risk         0.696
 6 marginalized    0.687
 7 underserved     0.684
 8 poorer          0.660
 9 educationally   0.657
10 handicapped     0.641
# ℹ 399,990 more rows

Code

tidy_glove %>% nearest_neighbors("law")

# A tibble: 400,000 × 2
   item1          value
   <chr>          <dbl>
 1 law            1    
 2 laws           0.877
 3 legal          0.768
 4 rules          0.749
 5 constitutional 0.722
 6 act            0.721
 7 federal        0.719
 8 legislation    0.708
 9 statute        0.707
10 court          0.705
# ℹ 399,990 more rows
…
# set the row names
word_vectors <- tidy_svd$u
rownames(word_vectors) <- rownames(tidy_matrix)

# write out equation
equation <- word_vectors["berlin",] - word_vectors["germany",] + word_vectors["france",]

# find the most related words
search_synonyms(word_vectors = word_vectors,
                       selected_vector = equation, # select specific word vector
                       original_word = "")

# A tibble: 400,000 × 2
   token         similarity
   <chr>              <dbl>
 1 paris           0.000381
 2 france          0.000335
 3 le              0.000301
 4 french          0.000290
 5 brussels        0.000275
 6 de              0.000275
 7 université      0.000271
 8 conservatoire   0.000270
 9 lille           0.000269
10 marseille       0.000268
# ℹ 399,990 more rows
…
# set the row names
word_vectors <- tidy_svd$u
rownames(word_vectors) <- rownames(tidy_matrix)

# write out equation
equation <- word_vectors["berlin",] - word_vectors["germany",] + word_vectors["france",]

# find the most related words
search_synonyms(word_vectors = word_vectors,
                       selected_vector = equation, # select specific word vector
                       original_word = "")

# A tibble: 400,000 × 2
   token         similarity
   <chr>              <dbl>
 1 paris           0.000381
 2 france          0.000335
 3 le              0.000301
 4 french          0.000290
 5 brussels        0.000275
 6 de              0.000275
 7 université      0.000271
 8 conservatoire   0.000270
 9 lille           0.000269
10 marseille       0.000268
# ℹ 399,990 more rows
…
