Topic Analysis: Biodiversity Loss
…
topics <- tidy(topicModel_k7, matrix = "beta")

# pull top terms
top_terms <- topics %>% 
  group_by(topic) %>% 
  top_n(10, beta) %>% 
  ungroup() %>% 
  arrange(topic, -beta)

top_terms

# A tibble: 73 × 3
   topic term            beta
   <int> <chr>          <dbl>
 1     1 research      0.0309
 2     1 biodiversity  0.0232
 3     1 news          0.0192
 4     1 loss          0.0187
 5     1 science       0.0132
 6     1 species       0.0120
 7     1 environmental 0.0118
 8     1 pollution     0.0108
 9     1 information   0.0102
10     1 university    0.0102
# ℹ 63 more rows
…
